{
    "key": "group_5f208f9009c88",
    "title": "Block: Grid Item",
    "fields": [
        {
            "key": "field_600f4d0b5e413",
            "label": "Background",
            "name": "",
            "type": "tab",
            "instructions": "",
            "required": 0,
            "conditional_logic": 0,
            "wrapper": {
                "width": "",
                "class": "",
                "id": ""
            },
            "placement": "top",
            "endpoint": 0
        },
        {
            "key": "field_5fe228b0851de",
            "label": "Background Color",
            "name": "has_background_color",
            "type": "true_false",
            "instructions": "",
            "required": 0,
            "conditional_logic": 0,
            "wrapper": {
                "width": "",
                "class": "",
                "id": ""
            },
            "message": "",
            "default_value": 0,
            "ui": 1,
            "ui_on_text": "",
            "ui_off_text": ""
        },
        {
            "key": "field_5fe213c60ad50",
            "label": "",
            "name": "",
            "type": "clone",
            "instructions": "",
            "required": 0,
            "conditional_logic": [
                [
                    {
                        "field": "field_5fe228b0851de",
                        "operator": "==",
                        "value": "1"
                    }
                ]
            ],
            "wrapper": {
                "width": "",
                "class": "",
                "id": ""
            },
            "clone": [
                "field_5f256f2d3df94"
            ],
            "display": "group",
            "layout": "block",
            "prefix_label": 0,
            "prefix_name": 0
        },
        {
            "key": "field_5fe22913851df",
            "label": "Background Image",
            "name": "has_background_image",
            "type": "true_false",
            "instructions": "",
            "required": 0,
            "conditional_logic": 0,
            "wrapper": {
                "width": "",
                "class": "",
                "id": ""
            },
            "message": "",
            "default_value": 0,
            "ui": 1,
            "ui_on_text": "",
            "ui_off_text": ""
        },
        {
            "key": "field_5ffe5c9702575",
            "label": "",
            "name": "image_group",
            "type": "clone",
            "instructions": "",
            "required": 0,
            "conditional_logic": [
                [
                    {
                        "field": "field_5fe22913851df",
                        "operator": "==",
                        "value": "1"
                    }
                ]
            ],
            "wrapper": {
                "width": "",
                "class": "",
                "id": ""
            },
            "clone": [
                "field_600de9d1c5bae"
            ],
            "display": "group",
            "layout": "block",
            "prefix_label": 0,
            "prefix_name": 0
        },
        {
            "key": "field_600f4d425e415",
            "label": "Overrides",
            "name": "",
            "type": "tab",
            "instructions": "",
            "required": 0,
            "conditional_logic": 0,
            "wrapper": {
                "width": "",
                "class": "",
                "id": ""
            },
            "placement": "top",
            "endpoint": 0
        },
        {
            "key": "field_601080dd51ab7",
            "label": "Overrides",
            "name": "overrides",
            "type": "repeater",
            "instructions": "",
            "required": 0,
            "conditional_logic": 0,
            "wrapper": {
                "width": "",
                "class": "",
                "id": ""
            },
            "collapsed": "field_601080eb51ab8",
            "min": 0,
            "max": 0,
            "layout": "block",
            "button_label": "Add Override",
            "sub_fields": [
                {
                    "key": "field_601080eb51ab8",
                    "label": "",
                    "name": "breakpoint",
                    "type": "clone",
                    "instructions": "",
                    "required": 0,
                    "conditional_logic": 0,
                    "wrapper": {
                        "width": "",
                        "class": "",
                        "id": ""
                    },
                    "clone": [
                        "field_6010807975764"
                    ],
                    "display": "group",
                    "layout": "block",
                    "prefix_label": 0,
                    "prefix_name": 0
                },
                {
                    "key": "field_6010852dede65",
                    "label": "Grid Column",
                    "name": "grid_column",
                    "type": "group",
                    "instructions": "",
                    "required": 0,
                    "conditional_logic": 0,
                    "wrapper": {
                        "width": "50",
                        "class": "",
                        "id": ""
                    },
                    "layout": "block",
                    "sub_fields": [
                        {
                            "key": "field_5fe2212e9e315",
                            "label": "Grid Column Override",
                            "name": "grid_column_override",
                            "type": "true_false",
                            "instructions": "",
                            "required": 0,
                            "conditional_logic": 0,
                            "wrapper": {
                                "width": "",
                                "class": "",
                                "id": ""
                            },
                            "message": "",
                            "default_value": 0,
                            "ui": 1,
                            "ui_on_text": "",
                            "ui_off_text": ""
                        },
                        {
                            "key": "field_5fe221959e316",
                            "label": "Grid Column Start",
                            "name": "grid_column_start",
                            "type": "number",
                            "instructions": "",
                            "required": 0,
                            "conditional_logic": [
                                [
                                    {
                                        "field": "field_5fe2212e9e315",
                                        "operator": "==",
                                        "value": "1"
                                    }
                                ]
                            ],
                            "wrapper": {
                                "width": "50",
                                "class": "",
                                "id": ""
                            },
                            "default_value": 1,
                            "placeholder": "",
                            "prepend": "",
                            "append": "",
                            "min": 1,
                            "max": 4,
                            "step": 1
                        },
                        {
                            "key": "field_5fe2223d9e317",
                            "label": "Grid Column Span",
                            "name": "grid_column_span",
                            "type": "number",
                            "instructions": "",
                            "required": 0,
                            "conditional_logic": [
                                [
                                    {
                                        "field": "field_5fe2212e9e315",
                                        "operator": "==",
                                        "value": "1"
                                    }
                                ]
                            ],
                            "wrapper": {
                                "width": "50",
                                "class": "",
                                "id": ""
                            },
                            "default_value": 1,
                            "placeholder": "",
                            "prepend": "",
                            "append": "",
                            "min": 1,
                            "max": 4,
                            "step": 1
                        }
                    ]
                },
                {
                    "key": "field_601085e0ede67",
                    "label": "Grid Row",
                    "name": "grid_row",
                    "type": "group",
                    "instructions": "",
                    "required": 0,
                    "conditional_logic": 0,
                    "wrapper": {
                        "width": "50",
                        "class": "",
                        "id": ""
                    },
                    "layout": "block",
                    "sub_fields": [
                        {
                            "key": "field_5fe222899e318",
                            "label": "Grid Row Override",
                            "name": "grid_row_override",
                            "type": "true_false",
                            "instructions": "",
                            "required": 0,
                            "conditional_logic": 0,
                            "wrapper": {
                                "width": "",
                                "class": "",
                                "id": ""
                            },
                            "message": "",
                            "default_value": 0,
                            "ui": 1,
                            "ui_on_text": "",
                            "ui_off_text": ""
                        },
                        {
                            "key": "field_5fe222a39e319",
                            "label": "Grid Row Start",
                            "name": "grid_row_start",
                            "type": "number",
                            "instructions": "",
                            "required": 0,
                            "conditional_logic": [
                                [
                                    {
                                        "field": "field_5fe222899e318",
                                        "operator": "==",
                                        "value": "1"
                                    }
                                ]
                            ],
                            "wrapper": {
                                "width": "50",
                                "class": "",
                                "id": ""
                            },
                            "default_value": 1,
                            "placeholder": "",
                            "prepend": "",
                            "append": "",
                            "min": 1,
                            "max": 12,
                            "step": 1
                        },
                        {
                            "key": "field_5fe222a89e31a",
                            "label": "Grid Row Span",
                            "name": "grid_row_span",
                            "type": "number",
                            "instructions": "",
                            "required": 0,
                            "conditional_logic": [
                                [
                                    {
                                        "field": "field_5fe222899e318",
                                        "operator": "==",
                                        "value": "1"
                                    }
                                ]
                            ],
                            "wrapper": {
                                "width": "50",
                                "class": "",
                                "id": ""
                            },
                            "default_value": 1,
                            "placeholder": "",
                            "prepend": "",
                            "append": "",
                            "min": 1,
                            "max": 12,
                            "step": 1
                        }
                    ]
                },
                {
                    "key": "field_5ff36465dbcb6",
                    "label": "Content Justify",
                    "name": "content_justify",
                    "type": "button_group",
                    "instructions": "",
                    "required": 0,
                    "conditional_logic": 0,
                    "wrapper": {
                        "width": "50",
                        "class": "",
                        "id": ""
                    },
                    "choices": {
                        "start": "Left",
                        "center": "Center",
                        "end": "Right"
                    },
                    "allow_null": 1,
                    "default_value": "",
                    "layout": "horizontal",
                    "return_format": "value"
                },
                {
                    "key": "field_5ffbd8bde95f6",
                    "label": "Content Align",
                    "name": "content_align",
                    "type": "button_group",
                    "instructions": "",
                    "required": 0,
                    "conditional_logic": 0,
                    "wrapper": {
                        "width": "50",
                        "class": "",
                        "id": ""
                    },
                    "choices": {
                        "start": "Top",
                        "center": "Center",
                        "end": "Bottom"
                    },
                    "allow_null": 1,
                    "default_value": "",
                    "layout": "horizontal",
                    "return_format": "value"
                }
            ]
        }
    ],
    "location": [
        [
            {
                "param": "block",
                "operator": "==",
                "value": "acf\/grid-item"
            }
        ]
    ],
    "menu_order": 0,
    "position": "normal",
    "style": "default",
    "label_placement": "top",
    "instruction_placement": "label",
    "hide_on_screen": "",
    "active": true,
    "description": "",
    "modified": 1611707670
}