{
    "key": "group_5ffb5f0537763",
    "title": "Block: Map",
    "fields": [
        {
            "key": "field_5ffb67894c52e",
            "label": "Use Default Location",
            "name": "use_default_location",
            "type": "true_false",
            "instructions": "",
            "required": 0,
            "conditional_logic": 0,
            "wrapper": {
                "width": "",
                "class": "",
                "id": ""
            },
            "message": "",
            "default_value": 1,
            "ui": 1,
            "ui_on_text": "",
            "ui_off_text": ""
        },
        {
            "key": "field_5ffb5f445eecb",
            "label": "Markers",
            "name": "markers",
            "type": "repeater",
            "instructions": "",
            "required": 0,
            "conditional_logic": [
                [
                    {
                        "field": "field_5ffb67894c52e",
                        "operator": "!=",
                        "value": "1"
                    }
                ]
            ],
            "wrapper": {
                "width": "",
                "class": "",
                "id": ""
            },
            "collapsed": "",
            "min": 0,
            "max": 0,
            "layout": "table",
            "button_label": "Add Marker",
            "sub_fields": [
                {
                    "key": "field_5ffb5f7490ab0",
                    "label": "Location",
                    "name": "location",
                    "type": "google_map",
                    "instructions": "",
                    "required": 0,
                    "conditional_logic": 0,
                    "wrapper": {
                        "width": "",
                        "class": "",
                        "id": ""
                    },
                    "center_lat": "48.38202",
                    "center_lng": "-89.25018",
                    "zoom": "",
                    "height": ""
                },
                {
                    "key": "field_5ffb5fc690ab1",
                    "label": "Content",
                    "name": "content",
                    "type": "wysiwyg",
                    "instructions": "",
                    "required": 0,
                    "conditional_logic": 0,
                    "wrapper": {
                        "width": "",
                        "class": "",
                        "id": ""
                    },
                    "default_value": "",
                    "tabs": "all",
                    "toolbar": "custom",
                    "media_upload": 1,
                    "delay": 0
                }
            ]
        },
        {
            "key": "field_5ffb5f05680cb",
            "label": "Zoom Level",
            "name": "zoom",
            "type": "number",
            "instructions": "",
            "required": 0,
            "conditional_logic": 0,
            "wrapper": {
                "width": "",
                "class": "",
                "id": ""
            },
            "default_value": 11,
            "placeholder": "",
            "prepend": "",
            "append": "",
            "min": 0,
            "max": 18,
            "step": 1
        }
    ],
    "location": [
        [
            {
                "param": "block",
                "operator": "==",
                "value": "acf\/map"
            }
        ]
    ],
    "menu_order": 0,
    "position": "normal",
    "style": "default",
    "label_placement": "top",
    "instruction_placement": "label",
    "hide_on_screen": "",
    "active": true,
    "description": "",
    "modified": 1611434285
}