{
    "key": "group_5f256f40bba17",
    "title": "Shared",
    "fields": [
        {
            "key": "field_600de9d1c5bae",
            "label": "Image",
            "name": "image",
            "type": "group",
            "instructions": "",
            "required": 0,
            "conditional_logic": 0,
            "wrapper": {
                "width": "",
                "class": "",
                "id": ""
            },
            "layout": "block",
            "sub_fields": [
                {
                    "key": "field_5f6414bd8255f",
                    "label": "",
                    "name": "image_id",
                    "type": "image",
                    "instructions": "",
                    "required": 0,
                    "conditional_logic": 0,
                    "wrapper": {
                        "width": "",
                        "class": "",
                        "id": ""
                    },
                    "return_format": "id",
                    "preview_size": "medium",
                    "library": "all",
                    "min_width": "",
                    "min_height": "",
                    "min_size": "",
                    "max_width": "",
                    "max_height": "",
                    "max_size": "",
                    "mime_types": "",
                    "default_value": ""
                },
                {
                    "key": "field_5ffe58bfb73cd",
                    "label": "Image Position",
                    "name": "image_position",
                    "type": "group",
                    "instructions": "",
                    "required": 0,
                    "conditional_logic": 0,
                    "wrapper": {
                        "width": "",
                        "class": "",
                        "id": ""
                    },
                    "layout": "block",
                    "sub_fields": [
                        {
                            "key": "field_5ffe594fb73cf",
                            "label": "Horizontal Position",
                            "name": "image_position_x",
                            "type": "range",
                            "instructions": "",
                            "required": 0,
                            "conditional_logic": 0,
                            "wrapper": {
                                "width": "50",
                                "class": "",
                                "id": ""
                            },
                            "default_value": 50,
                            "min": "",
                            "max": "",
                            "step": "",
                            "prepend": "",
                            "append": "%"
                        },
                        {
                            "key": "field_5ffe59afb73d0",
                            "label": "Vertical Position",
                            "name": "image_position_y",
                            "type": "range",
                            "instructions": "",
                            "required": 0,
                            "conditional_logic": 0,
                            "wrapper": {
                                "width": "50",
                                "class": "",
                                "id": ""
                            },
                            "default_value": 50,
                            "min": "",
                            "max": "",
                            "step": "",
                            "prepend": "",
                            "append": "%"
                        }
                    ]
                },
                {
                    "key": "field_5ffe58735070c",
                    "label": "Overlay",
                    "name": "overlay",
                    "type": "group",
                    "instructions": "",
                    "required": 0,
                    "conditional_logic": 0,
                    "wrapper": {
                        "width": "",
                        "class": "",
                        "id": ""
                    },
                    "layout": "block",
                    "sub_fields": [
                        {
                            "key": "field_5ffe581ece814",
                            "label": "Overlay Color",
                            "name": "overlay_color",
                            "type": "color_picker",
                            "instructions": "",
                            "required": 0,
                            "conditional_logic": 0,
                            "wrapper": {
                                "width": "50",
                                "class": "",
                                "id": ""
                            },
                            "default_value": "#000000"
                        },
                        {
                            "key": "field_5ffe5823ce815",
                            "label": "Overlay Opacity",
                            "name": "overlay_opacity",
                            "type": "range",
                            "instructions": "",
                            "required": 0,
                            "conditional_logic": 0,
                            "wrapper": {
                                "width": "50",
                                "class": "",
                                "id": ""
                            },
                            "default_value": 50,
                            "min": "",
                            "max": 100,
                            "step": 1,
                            "prepend": "",
                            "append": "%"
                        }
                    ]
                },
                {
                    "key": "field_5f641c166d2df",
                    "label": "Parallax Scrolling",
                    "name": "parallax",
                    "type": "true_false",
                    "instructions": "",
                    "required": 0,
                    "conditional_logic": 0,
                    "wrapper": {
                        "width": "",
                        "class": "",
                        "id": ""
                    },
                    "message": "",
                    "default_value": 0,
                    "ui": 1,
                    "ui_on_text": "",
                    "ui_off_text": ""
                }
            ]
        },
        {
            "key": "field_5f256f2d3df94",
            "label": "Color Select",
            "name": "color_select",
            "type": "select",
            "instructions": "",
            "required": 0,
            "conditional_logic": 0,
            "wrapper": {
                "width": "50",
                "class": "",
                "id": ""
            },
            "choices": {
                "default": "Default",
                "color-1": "Color 1",
                "color-2": "Color 2",
                "color-3": "Color 3",
                "black": "Black",
                "grey-dark": "Dark Grey",
                "grey": "Grey",
                "grey-light": "Light Grey",
                "white": "White"
            },
            "default_value": false,
            "allow_null": 0,
            "multiple": 0,
            "ui": 0,
            "return_format": "value",
            "ajax": 0,
            "placeholder": ""
        },
        {
            "key": "field_5f3c3cf333503",
            "label": "Color Picker",
            "name": "color_picker",
            "type": "color_picker",
            "instructions": "",
            "required": 0,
            "conditional_logic": 0,
            "wrapper": {
                "width": "",
                "class": "",
                "id": ""
            },
            "default_value": "#000000"
        },
        {
            "key": "field_60107f5fba966",
            "label": "Breakpoint",
            "name": "breakpoint",
            "type": "select",
            "instructions": "",
            "required": 0,
            "conditional_logic": 0,
            "wrapper": {
                "width": "",
                "class": "",
                "id": ""
            },
            "choices": {
                "xs": "XS",
                "sm": "SM",
                "md": "MD",
                "lg": "LG",
                "xl": "XL",
                "x2": "2X"
            },
            "default_value": false,
            "allow_null": 0,
            "multiple": 0,
            "ui": 0,
            "return_format": "value",
            "ajax": 0,
            "placeholder": ""
        },
        {
            "key": "field_6010807975764",
            "label": "Desktop Breakpoint",
            "name": "desktop_breakpoint",
            "type": "select",
            "instructions": "",
            "required": 0,
            "conditional_logic": 0,
            "wrapper": {
                "width": "",
                "class": "",
                "id": ""
            },
            "choices": {
                "lg": "LG",
                "xl": "XL",
                "x2": "2X"
            },
            "default_value": false,
            "allow_null": 0,
            "multiple": 0,
            "ui": 0,
            "return_format": "value",
            "ajax": 0,
            "placeholder": ""
        },
        {
            "key": "field_6010bd7251036",
            "label": "Margin",
            "name": "margin",
            "type": "group",
            "instructions": "",
            "required": 0,
            "conditional_logic": 0,
            "wrapper": {
                "width": "",
                "class": "",
                "id": ""
            },
            "layout": "block",
            "sub_fields": [
                {
                    "key": "field_6010c7265780e",
                    "label": "Margin Top",
                    "name": "margin_top_overrides",
                    "type": "repeater",
                    "instructions": "",
                    "required": 0,
                    "conditional_logic": 0,
                    "wrapper": {
                        "width": "50",
                        "class": "",
                        "id": ""
                    },
                    "collapsed": "",
                    "min": 0,
                    "max": 0,
                    "layout": "block",
                    "button_label": "Add Margin Top",
                    "sub_fields": [
                        {
                            "key": "field_6010c7d85780f",
                            "label": "",
                            "name": "breakpoint",
                            "type": "clone",
                            "instructions": "",
                            "required": 0,
                            "conditional_logic": 0,
                            "wrapper": {
                                "width": "50",
                                "class": "",
                                "id": ""
                            },
                            "clone": [
                                "field_60107f5fba966"
                            ],
                            "display": "seamless",
                            "layout": "block",
                            "prefix_label": 0,
                            "prefix_name": 0
                        },
                        {
                            "key": "field_6010bdfc51037",
                            "label": "Margin Top",
                            "name": "margin_top",
                            "type": "number",
                            "instructions": "",
                            "required": 0,
                            "conditional_logic": 0,
                            "wrapper": {
                                "width": "",
                                "class": "",
                                "id": ""
                            },
                            "default_value": 3,
                            "placeholder": "",
                            "prepend": "",
                            "append": "",
                            "min": -24,
                            "max": 24,
                            "step": 1
                        }
                    ]
                },
                {
                    "key": "field_6010c8a357810",
                    "label": "Margin Bottom",
                    "name": "margin_bottom_overrides",
                    "type": "repeater",
                    "instructions": "",
                    "required": 0,
                    "conditional_logic": 0,
                    "wrapper": {
                        "width": "50",
                        "class": "",
                        "id": ""
                    },
                    "collapsed": "",
                    "min": 0,
                    "max": 0,
                    "layout": "block",
                    "button_label": "Add Margin Bottom",
                    "sub_fields": [
                        {
                            "key": "field_6010c8a457811",
                            "label": "",
                            "name": "breakpoint",
                            "type": "clone",
                            "instructions": "",
                            "required": 0,
                            "conditional_logic": 0,
                            "wrapper": {
                                "width": "",
                                "class": "",
                                "id": ""
                            },
                            "clone": [
                                "field_60107f5fba966"
                            ],
                            "display": "seamless",
                            "layout": "block",
                            "prefix_label": 0,
                            "prefix_name": 0
                        },
                        {
                            "key": "field_6010bf345ad03",
                            "label": "Margin Bottom",
                            "name": "margin_bottom",
                            "type": "number",
                            "instructions": "",
                            "required": 0,
                            "conditional_logic": 0,
                            "wrapper": {
                                "width": "",
                                "class": "",
                                "id": ""
                            },
                            "default_value": 3,
                            "placeholder": "",
                            "prepend": "",
                            "append": "",
                            "min": -24,
                            "max": 24,
                            "step": 1
                        }
                    ]
                }
            ]
        },
        {
            "key": "field_6010d3e0c6d23",
            "label": "Padding",
            "name": "padding",
            "type": "group",
            "instructions": "",
            "required": 0,
            "conditional_logic": 0,
            "wrapper": {
                "width": "",
                "class": "",
                "id": ""
            },
            "layout": "block",
            "sub_fields": [
                {
                    "key": "field_6010d3e0c6d24",
                    "label": "Padding Top",
                    "name": "padding_top_overrides",
                    "type": "repeater",
                    "instructions": "",
                    "required": 0,
                    "conditional_logic": 0,
                    "wrapper": {
                        "width": "50",
                        "class": "",
                        "id": ""
                    },
                    "collapsed": "",
                    "min": 0,
                    "max": 0,
                    "layout": "block",
                    "button_label": "Add Padding Top",
                    "sub_fields": [
                        {
                            "key": "field_6010d3e0c6d25",
                            "label": "",
                            "name": "breakpoint",
                            "type": "clone",
                            "instructions": "",
                            "required": 0,
                            "conditional_logic": 0,
                            "wrapper": {
                                "width": "50",
                                "class": "",
                                "id": ""
                            },
                            "clone": [
                                "field_60107f5fba966"
                            ],
                            "display": "seamless",
                            "layout": "block",
                            "prefix_label": 0,
                            "prefix_name": 0
                        },
                        {
                            "key": "field_6010d3e0c6d26",
                            "label": "Padding Top",
                            "name": "padding_top",
                            "type": "number",
                            "instructions": "",
                            "required": 0,
                            "conditional_logic": 0,
                            "wrapper": {
                                "width": "",
                                "class": "",
                                "id": ""
                            },
                            "default_value": 3,
                            "placeholder": "",
                            "prepend": "",
                            "append": "",
                            "min": 0,
                            "max": 24,
                            "step": 1
                        }
                    ]
                },
                {
                    "key": "field_6010d3e0c6d27",
                    "label": "Padding Bottom",
                    "name": "padding_bottom_overrides",
                    "type": "repeater",
                    "instructions": "",
                    "required": 0,
                    "conditional_logic": 0,
                    "wrapper": {
                        "width": "50",
                        "class": "",
                        "id": ""
                    },
                    "collapsed": "",
                    "min": 0,
                    "max": 0,
                    "layout": "block",
                    "button_label": "Add Padding Bottom",
                    "sub_fields": [
                        {
                            "key": "field_6010d3e0c6d28",
                            "label": "",
                            "name": "breakpoint",
                            "type": "clone",
                            "instructions": "",
                            "required": 0,
                            "conditional_logic": 0,
                            "wrapper": {
                                "width": "",
                                "class": "",
                                "id": ""
                            },
                            "clone": [
                                "field_60107f5fba966"
                            ],
                            "display": "seamless",
                            "layout": "block",
                            "prefix_label": 0,
                            "prefix_name": 0
                        },
                        {
                            "key": "field_6010d3e0c6d29",
                            "label": "Padding Bottom",
                            "name": "padding_bottom",
                            "type": "number",
                            "instructions": "",
                            "required": 0,
                            "conditional_logic": 0,
                            "wrapper": {
                                "width": "",
                                "class": "",
                                "id": ""
                            },
                            "default_value": 3,
                            "placeholder": "",
                            "prepend": "",
                            "append": "",
                            "min": 0,
                            "max": 24,
                            "step": 1
                        }
                    ]
                }
            ]
        }
    ],
    "location": [
        [
            {
                "param": "post_type",
                "operator": "==",
                "value": "post"
            }
        ]
    ],
    "menu_order": 0,
    "position": "normal",
    "style": "default",
    "label_placement": "top",
    "instruction_placement": "label",
    "hide_on_screen": "",
    "active": false,
    "description": "",
    "modified": 1611846542
}