<?xml version="1.0" encoding="utf-8"?>
<svg version="1.1" xmlns="http://www.w3.org/2000/svg" x="0" y="0" viewBox="0 0 512 512" xml:space="preserve">
	<style>
    	.st0{fill:white}
        .st1{fill:white;opacity:0.5}
	</style>
	<path class="st0" d="M272 64h-32c-8.8 0-16 7.2-16 16v416c0 8.8 7.2 16 16 16h32c8.8 0 16-7.2 16-16V80c0-8.8-7.2-16-16-16z"/>
	<path class="st1" d="M512 160.9c-6.8-61.8-33.6-116.6-73.1-156.2-9.2-9.2-23.9-4.1-27.1 9-12 49.7-47.2 88.3-91.9 101.2v154.2c44.6 13 79.9 51.6 91.9 101.2 3.2 13.1 17.9 18.2 27.1 9 39.5-39.6 66.2-94.4 73.1-156.2L449.2 192l62.8-31.1z"/>
	<path class="st1" d="M101 13.7C97.9.6 83.3-4.5 74.2 4.7 28.7 50.8 0 117.6 0 192s28.7 141.2 74.2 187.3c9.1 9.2 23.7 4.1 26.8-9 11.9-49.7 46.8-88.3 91-101.2V114.9c-44.2-13-79.1-51.6-91-101.2z"/>
</svg>